[{
  "productId": "711f1453-e3f2-4714-a531-9118abf819c2",
  "name": "Wine - Two Oceans Sauvignon",
  "description": null,
  "image": "http://dummyimage.com/222x100.png/ff4444/ffffff",
  "price": 23,
  "multipleColors": [
    {
    },
    {
    }
  ],
  "multipleCategories": [
    {
    },
    {
    }
  ]
}, {
  "productId": "416bcb20-d3b4-4e0d-bc4e-927a871d6ada",
  "name": "Dc - Frozen Momji",
  "description": null,
  "image": "http://dummyimage.com/232x100.png/cc0000/ffffff",
  "price": 58,
  "multipleColors": [
    {
    },
    {
    }
  ],
  "multipleCategories": [
    {
    },
    {
    }
  ]
}, {
  "productId": "fd97a07d-224c-4600-826d-17baa7a9a2ea",
  "name": "Jam - Marmalade, Orange",
  "description": null,
  "image": "http://dummyimage.com/114x100.png/ff4444/ffffff",
  "price": 58,
  "multipleColors": [
    {
    },
    {
    }
  ],
  "multipleCategories": [
    {
    },
    {
    }
  ]
}, {
  "productId": "e71e2136-2640-45ae-9d01-2e0a4033c67c",
  "name": "Jello - Assorted",
  "description": null,
  "image": "http://dummyimage.com/218x100.png/5fa2dd/ffffff",
  "price": 42,
  "multipleColors": [
    {
    },
    {
    }
  ],
  "multipleCategories": [
    {
    },
    {
    }
  ]
}, {
  "productId": "1f579182-600b-4716-b5e7-26a6cf056fec",
  "name": "Basil - Fresh",
  "description": null,
  "image": "http://dummyimage.com/171x100.png/cc0000/ffffff",
  "price": 3,
  "multipleColors": [
    {
    },
    {
    }
  ],
  "multipleCategories": [
    {
    },
    {
    }
  ]
}, {
  "productId": "96096b81-4c65-4665-aa4d-6b1aa33ce34a",
  "name": "Instant Coffee",
  "description": null,
  "image": "http://dummyimage.com/249x100.png/ff4444/ffffff",
  "price": 33,
  "multipleColors": [
    {
    },
    {
    }
  ],
  "multipleCategories": [
    {
    },
    {
    }
  ]
}, {
  "productId": "4e3303eb-4708-448f-b3b1-a827f454d90e",
  "name": "Wine - Vovray Sec Domaine Huet",
  "description": null,
  "image": "http://dummyimage.com/131x100.png/5fa2dd/ffffff",
  "price": 43,
  "multipleColors": [
    {
    },
    {
    }
  ],
  "multipleCategories": [
    {
    },
    {
    }
  ]
}, {
  "productId": "e26c1cab-a872-418b-9345-6d0712c7c2e4",
  "name": "Liners - Banana, Paper",
  "description": null,
  "image": "http://dummyimage.com/118x100.png/ff4444/ffffff",
  "price": 87,
  "multipleColors": [
    {
    },
    {
    }
  ],
  "multipleCategories": [
    {
    },
    {
    }
  ]
}, {
  "productId": "8fc3a78c-269a-4ecc-9993-ed18085c9659",
  "name": "Flower - Potmums",
  "description": null,
  "image": "http://dummyimage.com/122x100.png/cc0000/ffffff",
  "price": 75,
  "multipleColors": [
    {
    },
    {
    }
  ],
  "multipleCategories": [
    {
    },
    {
    }
  ]
}, {
  "productId": "b2448904-ab53-47e1-a5b4-883eb41d45f6",
  "name": "Oil - Cooking Spray",
  "description": null,
  "image": "http://dummyimage.com/139x100.png/dddddd/000000",
  "price": 5,
  "multipleColors": [
    {
    },
    {
    }
  ],
  "multipleCategories": [
    {
    },
    {
    }
  ]
}]